basic/prj/xilinx/template.sim/sim_1/behav/xsim/simulate.log
Vivado Simulator 2018.3
Time resolution is 1 ps
Time=                   0, State=00, A_time= 0, B_time= 0, LED=001100
Time=               20000, State=00, A_time= 0, B_time= 3, LED=001100
Time=               25000, State=01, A_time= 2, B_time= 2, LED=010100
Time=               35000, State=01, A_time= 1, B_time= 1, LED=010100
Time=               45000, State=01, A_time= 0, B_time= 0, LED=010100
Time=               55000, State=10, A_time=29, B_time=26, LED=100001
Time=               65000, State=10, A_time=28, B_time=25, LED=100001
Time=               75000, State=10, A_time=27, B_time=24, LED=100001
Time=               85000, State=10, A_time=26, B_time=23, LED=100001
Time=               95000, State=10, A_time=25, B_time=22, LED=100001
Time=              105000, State=10, A_time=24, B_time=21, LED=100001
Time=              115000, State=10, A_time=23, B_time=20, LED=100001
Time=              125000, State=10, A_time=22, B_time=19, LED=100001
Time=              135000, State=10, A_time=21, B_time=18, LED=100001
Time=              145000, State=10, A_time=20, B_time=17, LED=100001
Time=              155000, State=10, A_time=19, B_time=16, LED=100001
Time=              165000, State=10, A_time=18, B_time=15, LED=100001
Time=              175000, State=10, A_time=17, B_time=14, LED=100001
Time=              185000, State=10, A_time=16, B_time=13, LED=100001
Time=              195000, State=10, A_time=15, B_time=12, LED=100001
Time=              205000, State=10, A_time=14, B_time=11, LED=100001
Time=              215000, State=10, A_time=13, B_time=10, LED=100001
Time=              225000, State=10, A_time=12, B_time= 9, LED=100001
Time=              235000, State=11, A_time= 2, B_time= 2, LED=100010
Time=              245000, State=11, A_time= 1, B_time= 1, LED=100010
Time=              255000, State=11, A_time= 0, B_time= 0, LED=100010
Time=              265000, State=00, A_time=26, B_time=29, LED=001100
Time=              275000, State=00, A_time=25, B_time=28, LED=001100
Time=              285000, State=00, A_time=24, B_time=27, LED=001100
Time=              295000, State=00, A_time=23, B_time=26, LED=001100
Time=              305000, State=00, A_time=22, B_time=25, LED=001100
Time=              315000, State=00, A_time=21, B_time=24, LED=001100
Time=              325000, State=00, A_time=20, B_time=23, LED=001100
Time=              335000, State=00, A_time=19, B_time=22, LED=001100
Time=              345000, State=00, A_time=18, B_time=21, LED=001100
Time=              355000, State=00, A_time=17, B_time=20, LED=001100
Time=              365000, State=00, A_time=16, B_time=19, LED=001100
Time=              375000, State=00, A_time=15, B_time=18, LED=001100
Time=              385000, State=00, A_time=14, B_time=17, LED=001100
Time=              395000, State=00, A_time=13, B_time=16, LED=001100
Time=              405000, State=00, A_time=12, B_time=15, LED=001100
Time=              415000, State=00, A_time=11, B_time=14, LED=001100
Time=              425000, State=00, A_time=10, B_time=13, LED=001100
Time=              435000, State=00, A_time= 9, B_time=12, LED=001100
Time=              445000, State=00, A_time= 8, B_time=11, LED=001100
Time=              455000, State=00, A_time= 7, B_time=10, LED=001100
Time=              465000, State=00, A_time= 6, B_time= 9, LED=001100
Time=              475000, State=00, A_time= 5, B_time= 8, LED=001100
Time=              485000, State=00, A_time= 4, B_time= 7, LED=001100
Time=              495000, State=00, A_time= 3, B_time= 6, LED=001100
Time=              505000, State=00, A_time= 2, B_time= 5, LED=001100
Time=              515000, State=00, A_time= 1, B_time= 4, LED=001100
Time=              525000, State=00, A_time= 0, B_time= 3, LED=001100
Time=              535000, State=00, A_time=26, B_time=29, LED=001100
Time=              545000, State=00, A_time=25, B_time=28, LED=001100
Time=              555000, State=00, A_time=24, B_time=27, LED=001100
Time=              565000, State=00, A_time=23, B_time=26, LED=001100
Time=              575000, State=00, A_time=22, B_time=25, LED=001100
Time=              585000, State=00, A_time=21, B_time=24, LED=001100
Time=              595000, State=00, A_time=20, B_time=23, LED=001100
Time=              605000, State=00, A_time=19, B_time=22, LED=001100
Time=              615000, State=00, A_time=18, B_time=21, LED=001100
Time=              625000, State=01, A_time= 2, B_time= 2, LED=010100
Time=              635000, State=01, A_time= 1, B_time= 1, LED=010100
Time=              645000, State=01, A_time= 0, B_time= 0, LED=010100
Time=              655000, State=10, A_time=29, B_time=26, LED=100001
Time=              665000, State=10, A_time=28, B_time=25, LED=100001
Time=              675000, State=10, A_time=27, B_time=24, LED=100001
Time=              685000, State=10, A_time=26, B_time=23, LED=100001
Time=              695000, State=10, A_time=25, B_time=22, LED=100001
Time=              705000, State=10, A_time=24, B_time=21, LED=100001
Time=              715000, State=10, A_time=23, B_time=20, LED=100001
Time=              725000, State=10, A_time=22, B_time=19, LED=100001
Time=              735000, State=10, A_time=21, B_time=18, LED=100001
Time=              745000, State=10, A_time=20, B_time=17, LED=100001
Time=              755000, State=10, A_time=19, B_time=16, LED=100001
Time=              765000, State=10, A_time=18, B_time=15, LED=100001
Time=              775000, State=10, A_time=17, B_time=14, LED=100001
Time=              785000, State=10, A_time=16, B_time=13, LED=100001
Time=              795000, State=10, A_time=15, B_time=12, LED=100001
Time=              805000, State=10, A_time=14, B_time=11, LED=100001
Time=              815000, State=10, A_time=13, B_time=10, LED=100001
Time=              825000, State=10, A_time=12, B_time= 9, LED=100001
Time=              835000, State=10, A_time=11, B_time= 8, LED=100001
Time=              845000, State=10, A_time=10, B_time= 7, LED=100001
Time=              855000, State=10, A_time= 9, B_time= 6, LED=100001
Time=              865000, State=10, A_time= 8, B_time= 5, LED=100001
Time=              875000, State=10, A_time= 7, B_time= 4, LED=100001
Time=              885000, State=10, A_time= 6, B_time= 3, LED=100001
Time=              895000, State=10, A_time= 5, B_time= 2, LED=100001
Time=              905000, State=10, A_time= 4, B_time= 1, LED=100001
Time=              915000, State=10, A_time= 3, B_time= 0, LED=100001
Time=              925000, State=11, A_time= 2, B_time= 2, LED=100010
Time=              935000, State=11, A_time= 1, B_time= 1, LED=100010
Time=              945000, State=11, A_time= 0, B_time= 0, LED=100010
Time=              955000, State=00, A_time=26, B_time=29, LED=001100
Time=              965000, State=00, A_time=25, B_time=28, LED=001100
Time=              975000, State=00, A_time=24, B_time=27, LED=001100
Time=              985000, State=00, A_time=23, B_time=26, LED=001100
Time=              995000, State=00, A_time=22, B_time=25, LED=001100
Time=             1005000, State=00, A_time=21, B_time=24, LED=001100
Time=             1015000, State=00, A_time=20, B_time=23, LED=001100
Time=             1025000, State=00, A_time=19, B_time=22, LED=001100
Time=             1035000, State=00, A_time=18, B_time=21, LED=001100
Time=             1045000, State=00, A_time=17, B_time=20, LED=001100
Time=             1055000, State=00, A_time=16, B_time=19, LED=001100
Time=             1065000, State=00, A_time=15, B_time=18, LED=001100
Time=             1075000, State=00, A_time=14, B_time=17, LED=001100
Time=             1085000, State=00, A_time=13, B_time=16, LED=001100
Time=             1095000, State=00, A_time=12, B_time=15, LED=001100
Time=             1105000, State=00, A_time=11, B_time=14, LED=001100
Time=             1115000, State=00, A_time=10, B_time=13, LED=001100
Time=             1125000, State=00, A_time= 9, B_time=12, LED=001100
Time=             1135000, State=00, A_time= 8, B_time=11, LED=001100
Time=             1145000, State=00, A_time= 7, B_time=10, LED=001100
Time=             1155000, State=00, A_time= 6, B_time= 9, LED=001100
Time=             1165000, State=00, A_time= 5, B_time= 8, LED=001100
Time=             1175000, State=00, A_time= 4, B_time= 7, LED=001100
Time=             1185000, State=00, A_time= 3, B_time= 6, LED=001100
Time=             1195000, State=00, A_time= 2, B_time= 5, LED=001100
Time=             1205000, State=00, A_time= 1, B_time= 4, LED=001100
Time=             1215000, State=00, A_time= 0, B_time= 3, LED=001100
Time=             1225000, State=01, A_time= 2, B_time= 2, LED=010100
Time=             1235000, State=01, A_time= 1, B_time= 1, LED=010100
Time=             1245000, State=01, A_time= 0, B_time= 0, LED=010100
Time=             1255000, State=10, A_time=29, B_time=26, LED=100001
Time=             1265000, State=10, A_time=28, B_time=25, LED=100001
Time=             1275000, State=10, A_time=27, B_time=24, LED=100001
Time=             1285000, State=10, A_time=26, B_time=23, LED=100001
Time=             1295000, State=10, A_time=25, B_time=22, LED=100001
Time=             1305000, State=10, A_time=24, B_time=21, LED=100001
Time=             1315000, State=10, A_time=23, B_time=20, LED=100001
Time=             1325000, State=10, A_time=22, B_time=19, LED=100001
Time=             1335000, State=10, A_time=21, B_time=18, LED=100001
Time=             1345000, State=10, A_time=20, B_time=17, LED=100001
Time=             1355000, State=10, A_time=19, B_time=16, LED=100001
Time=             1365000, State=10, A_time=18, B_time=15, LED=100001
Time=             1375000, State=10, A_time=17, B_time=14, LED=100001
Time=             1385000, State=10, A_time=16, B_time=13, LED=100001
Time=             1395000, State=10, A_time=15, B_time=12, LED=100001
Time=             1405000, State=10, A_time=14, B_time=11, LED=100001
Time=             1415000, State=10, A_time=13, B_time=10, LED=100001
Time=             1425000, State=10, A_time=12, B_time= 9, LED=100001
Time=             1435000, State=10, A_time=11, B_time= 8, LED=100001
Time=             1445000, State=10, A_time=10, B_time= 7, LED=100001
Time=             1455000, State=10, A_time= 9, B_time= 6, LED=100001
Time=             1465000, State=10, A_time= 8, B_time= 5, LED=100001
Time=             1475000, State=10, A_time= 7, B_time= 4, LED=100001
Time=             1485000, State=10, A_time= 6, B_time= 3, LED=100001
Time=             1495000, State=10, A_time= 5, B_time= 2, LED=100001
Time=             1505000, State=10, A_time= 4, B_time= 1, LED=100001
Time=             1515000, State=10, A_time= 3, B_time= 0, LED=100001
Time=             1525000, State=11, A_time= 2, B_time= 2, LED=100010
Time=             1535000, State=11, A_time= 1, B_time= 1, LED=100010
Time=             1545000, State=11, A_time= 0, B_time= 0, LED=100010
Time=             1555000, State=00, A_time=26, B_time=29, LED=001100
Time=             1565000, State=00, A_time=25, B_time=28, LED=001100
Time=             1575000, State=00, A_time=24, B_time=27, LED=001100
Time=             1585000, State=00, A_time=23, B_time=26, LED=001100
Time=             1595000, State=00, A_time=22, B_time=25, LED=001100
Time=             1605000, State=00, A_time=21, B_time=24, LED=001100
Time=             1615000, State=00, A_time=20, B_time=23, LED=001100
Time=             1625000, State=00, A_time=19, B_time=22, LED=001100
Time=             1635000, State=00, A_time=18, B_time=21, LED=001100
Time=             1645000, State=00, A_time=17, B_time=20, LED=001100
Time=             1655000, State=00, A_time=16, B_time=19, LED=001100
Time=             1665000, State=00, A_time=15, B_time=18, LED=001100
Time=             1675000, State=00, A_time=14, B_time=17, LED=001100
Time=             1685000, State=00, A_time=13, B_time=16, LED=001100
Time=             1695000, State=00, A_time=12, B_time=15, LED=001100
Time=             1705000, State=00, A_time=11, B_time=14, LED=001100
Time=             1715000, State=00, A_time=10, B_time=13, LED=001100
Time=             1725000, State=00, A_time= 9, B_time=12, LED=001100
Time=             1735000, State=00, A_time= 8, B_time=11, LED=001100
Time=             1745000, State=00, A_time= 7, B_time=10, LED=001100
Time=             1755000, State=00, A_time= 6, B_time= 9, LED=001100
Time=             1765000, State=00, A_time= 5, B_time= 8, LED=001100
Time=             1775000, State=00, A_time= 4, B_time= 7, LED=001100
Time=             1785000, State=00, A_time= 3, B_time= 6, LED=001100
Time=             1795000, State=00, A_time= 2, B_time= 5, LED=001100
Time=             1805000, State=00, A_time= 1, B_time= 4, LED=001100
Time=             1815000, State=00, A_time= 0, B_time= 3, LED=001100
Time=             1825000, State=01, A_time= 2, B_time= 2, LED=010100
Time=             1835000, State=01, A_time= 1, B_time= 1, LED=010100
Time=             1845000, State=01, A_time= 0, B_time= 0, LED=010100
Time=             1855000, State=10, A_time=29, B_time=26, LED=100001
Time=             1865000, State=10, A_time=28, B_time=25, LED=100001
Time=             1875000, State=10, A_time=27, B_time=24, LED=100001
Time=             1885000, State=10, A_time=26, B_time=23, LED=100001
Time=             1895000, State=10, A_time=25, B_time=22, LED=100001
Time=             1905000, State=10, A_time=24, B_time=21, LED=100001
Time=             1915000, State=10, A_time=23, B_time=20, LED=100001
Time=             1925000, State=10, A_time=22, B_time=19, LED=100001
Time=             1935000, State=10, A_time=21, B_time=18, LED=100001
Time=             1945000, State=10, A_time=20, B_time=17, LED=100001
Time=             1955000, State=10, A_time=19, B_time=16, LED=100001
Time=             1965000, State=10, A_time=18, B_time=15, LED=100001
Time=             1975000, State=10, A_time=17, B_time=14, LED=100001
Time=             1985000, State=10, A_time=16, B_time=13, LED=100001
Time=             1995000, State=10, A_time=15, B_time=12, LED=100001
